  0 KSP Residual norm 0.330719 
      Residual norms for mg_levels_1_ solve.
      0 KSP Residual norm 0.651879 
      1 KSP Residual norm 0.413055 
      2 KSP Residual norm 0.369178 
      Residual norms for mg_levels_1_ solve.
      0 KSP Residual norm 0.191655 
      1 KSP Residual norm 0.121706 
      2 KSP Residual norm 0.10937 
    Residual norms for mg_levels_2_ solve.
    0 KSP Residual norm 0.496629 
    1 KSP Residual norm 0.423529 
    2 KSP Residual norm 0.355576 
      Residual norms for mg_levels_1_ solve.
      0 KSP Residual norm 0.101895 
      1 KSP Residual norm 0.118417 
      2 KSP Residual norm 0.0843756 
      Residual norms for mg_levels_1_ solve.
      0 KSP Residual norm 0.0496901 
      1 KSP Residual norm 0.0301473 
      2 KSP Residual norm 0.0208015 
    Residual norms for mg_levels_2_ solve.
    0 KSP Residual norm 0.281174 
    1 KSP Residual norm 0.203656 
    2 KSP Residual norm 0.180032 
  1 KSP Residual norm 0.0594807 
      Residual norms for mg_levels_1_ solve.
      0 KSP Residual norm 0.457778 
      1 KSP Residual norm 0.352403 
      2 KSP Residual norm 0.24737 
      Residual norms for mg_levels_1_ solve.
      0 KSP Residual norm 0.110342 
      1 KSP Residual norm 0.0991623 
      2 KSP Residual norm 0.0720687 
    Residual norms for mg_levels_2_ solve.
    0 KSP Residual norm 0.476075 
    1 KSP Residual norm 0.423249 
    2 KSP Residual norm 0.313364 
      Residual norms for mg_levels_1_ solve.
      0 KSP Residual norm 0.0871118 
      1 KSP Residual norm 0.0997156 
      2 KSP Residual norm 0.0764107 
      Residual norms for mg_levels_1_ solve.
      0 KSP Residual norm 0.0441049 
      1 KSP Residual norm 0.0326875 
      2 KSP Residual norm 0.0233299 
    Residual norms for mg_levels_2_ solve.
    0 KSP Residual norm 0.154834 
    1 KSP Residual norm 0.155717 
    2 KSP Residual norm 0.100997 
  2 KSP Residual norm 0.00247561 
      Residual norms for mg_levels_1_ solve.
      0 KSP Residual norm 0.193031 
      1 KSP Residual norm 0.113919 
      2 KSP Residual norm 0.0844467 
      Residual norms for mg_levels_1_ solve.
      0 KSP Residual norm 0.0441304 
      1 KSP Residual norm 0.0318297 
      2 KSP Residual norm 0.0240393 
    Residual norms for mg_levels_2_ solve.
    0 KSP Residual norm 0.370555 
    1 KSP Residual norm 0.45072 
    2 KSP Residual norm 0.211997 
      Residual norms for mg_levels_1_ solve.
      0 KSP Residual norm 0.0591373 
      1 KSP Residual norm 0.0353319 
      2 KSP Residual norm 0.0208358 
      Residual norms for mg_levels_1_ solve.
      0 KSP Residual norm 0.0113894 
      1 KSP Residual norm 0.0078409 
      2 KSP Residual norm 0.0065737 
    Residual norms for mg_levels_2_ solve.
    0 KSP Residual norm 0.0980866 
    1 KSP Residual norm 0.0932996 
    2 KSP Residual norm 0.0568743 
  3 KSP Residual norm 8.67227e-05 
      Residual norms for mg_levels_1_ solve.
      0 KSP Residual norm 0.25549 
      1 KSP Residual norm 0.18992 
      2 KSP Residual norm 0.136756 
      Residual norms for mg_levels_1_ solve.
      0 KSP Residual norm 0.0508212 
      1 KSP Residual norm 0.0515419 
      2 KSP Residual norm 0.041605 
    Residual norms for mg_levels_2_ solve.
    0 KSP Residual norm 0.417126 
    1 KSP Residual norm 0.289593 
    2 KSP Residual norm 0.258292 
      Residual norms for mg_levels_1_ solve.
      0 KSP Residual norm 0.0670027 
      1 KSP Residual norm 0.0723889 
      2 KSP Residual norm 0.0559035 
      Residual norms for mg_levels_1_ solve.
      0 KSP Residual norm 0.0334027 
      1 KSP Residual norm 0.0244517 
      2 KSP Residual norm 0.0175946 
    Residual norms for mg_levels_2_ solve.
    0 KSP Residual norm 0.115699 
    1 KSP Residual norm 0.0970394 
    2 KSP Residual norm 0.0778181 
  4 KSP Residual norm 3.51319e-06 
      Residual norms for mg_levels_1_ solve.
      0 KSP Residual norm 0.065644 
      1 KSP Residual norm 0.0201311 
      2 KSP Residual norm 0.023495 
      Residual norms for mg_levels_1_ solve.
      0 KSP Residual norm 0.00869136 
      1 KSP Residual norm 0.0064916 
      2 KSP Residual norm 0.00479662 
    Residual norms for mg_levels_2_ solve.
    0 KSP Residual norm 0.34194 
    1 KSP Residual norm 0.259424 
    2 KSP Residual norm 0.243949 
      Residual norms for mg_levels_1_ solve.
      0 KSP Residual norm 0.0273659 
      1 KSP Residual norm 0.0283312 
      2 KSP Residual norm 0.023116 
      Residual norms for mg_levels_1_ solve.
      0 KSP Residual norm 0.0144767 
      1 KSP Residual norm 0.00928033 
      2 KSP Residual norm 0.00658357 
    Residual norms for mg_levels_2_ solve.
    0 KSP Residual norm 0.113906 
    1 KSP Residual norm 0.0723058 
    2 KSP Residual norm 0.0801778 
  5 KSP Residual norm 2.81495e-08 
KSP Object: 1 MPI processes
  type: fgmres
    GMRES: restart=30, using Classical (unmodified) Gram-Schmidt Orthogonalization with no iterative refinement
    GMRES: happy breakdown tolerance 1e-30
  maximum iterations=10000, initial guess is zero
  tolerances:  relative=1e-05, absolute=1e-50, divergence=10000
  right preconditioning
  using UNPRECONDITIONED norm type for convergence test
PC Object: 1 MPI processes
  type: mg
    MG: type is FULL, levels=3 cycles=v
      Not using Galerkin computed coarse grid matrices
  Coarse grid solver -- level -------------------------------
    KSP Object:    (mg_coarse_)     1 MPI processes
      type: preonly
      maximum iterations=1, initial guess is zero
      tolerances:  relative=1e-05, absolute=1e-50, divergence=10000
      left preconditioning
      using NONE norm type for convergence test
    PC Object:    (mg_coarse_)     1 MPI processes
      type: lu
        LU: out-of-place factorization
        tolerance for zero pivot 2.22045e-14
        using diagonal shift on blocks to prevent zero pivot [INBLOCKS]
        matrix ordering: nd
        factor fill ratio given 5, needed 1
          Factored matrix follows:
            Mat Object:             1 MPI processes
              type: seqaij
              rows=3, cols=3
              package used to perform factorization: petsc
              total: nonzeros=7, allocated nonzeros=7
              total number of mallocs used during MatSetValues calls =0
                not using I-node routines
      linear system matrix = precond matrix:
      Mat Object:       1 MPI processes
        type: seqaij
        rows=3, cols=3
        total: nonzeros=7, allocated nonzeros=9
        total number of mallocs used during MatSetValues calls =0
          not using I-node routines
  Down solver (pre-smoother) on level 1 -------------------------------
    KSP Object:    (mg_levels_1_)     1 MPI processes
      type: chebyshev
        Chebyshev: eigenvalue estimates:  min = 0.255106, max = 2.80617
        Chebyshev: eigenvalues estimated using gmres with translations  [0 0.1; 0 1.1]
        KSP Object:        (mg_levels_1_esteig_)         1 MPI processes
          type: gmres
            GMRES: restart=30, using Classical (unmodified) Gram-Schmidt Orthogonalization with no iterative refinement
            GMRES: happy breakdown tolerance 1e-30
          maximum iterations=10
          tolerances:  relative=1e-05, absolute=1e-50, divergence=10000
          left preconditioning
          using nonzero initial guess
          using NONE norm type for convergence test
      maximum iterations=2
      tolerances:  relative=1e-05, absolute=1e-50, divergence=10000
      left preconditioning
      using nonzero initial guess
      using UNPRECONDITIONED norm type for convergence test
    PC Object:    (mg_levels_1_)     1 MPI processes
      type: sor
        SOR: type = local_symmetric, iterations = 1, local iterations = 1, omega = 1
      linear system matrix = precond matrix:
      Mat Object:       1 MPI processes
        type: seqaij
        rows=5, cols=5
        total: nonzeros=13, allocated nonzeros=15
        total number of mallocs used during MatSetValues calls =0
          not using I-node routines
  Up solver (post-smoother) same as down solver (pre-smoother)
  Down solver (pre-smoother) on level 2 -------------------------------
    KSP Object:    (mg_levels_2_)     1 MPI processes
      type: chebyshev
        Chebyshev: eigenvalue estimates:  min = 0.116077, max = 1.27685
        Chebyshev: eigenvalues estimated using gmres with translations  [0 0.1; 0 1.1]
        KSP Object:        (mg_levels_2_esteig_)         1 MPI processes
          type: gmres
            GMRES: restart=30, using Classical (unmodified) Gram-Schmidt Orthogonalization with no iterative refinement
            GMRES: happy breakdown tolerance 1e-30
          maximum iterations=10
          tolerances:  relative=1e-05, absolute=1e-50, divergence=10000
          left preconditioning
          using nonzero initial guess
          using NONE norm type for convergence test
      maximum iterations=2
      tolerances:  relative=1e-05, absolute=1e-50, divergence=10000
      left preconditioning
      using nonzero initial guess
      using UNPRECONDITIONED norm type for convergence test
    PC Object:    (mg_levels_2_)     1 MPI processes
      type: sor
        SOR: type = local_symmetric, iterations = 1, local iterations = 1, omega = 1
      linear system matrix = precond matrix:
      Mat Object:       1 MPI processes
        type: seqaij
        rows=9, cols=9
        total: nonzeros=25, allocated nonzeros=27
        total number of mallocs used during MatSetValues calls =0
          not using I-node routines
  Up solver (post-smoother) same as down solver (pre-smoother)
  linear system matrix = precond matrix:
  Mat Object:   1 MPI processes
    type: seqaij
    rows=9, cols=9
    total: nonzeros=25, allocated nonzeros=27
    total number of mallocs used during MatSetValues calls =0
      not using I-node routines
Residual norm 1.88893e-08
